<?xml version="1.0" encoding="utf-8"?>
<!-- Generator: Adobe Illustrator 19.2.0, SVG Export Plug-In . SVG Version: 6.00 Build 0)  -->
<svg version="1.1" id="Layer_1" xmlns="http://www.w3.org/2000/svg" xmlns:xlink="http://www.w3.org/1999/xlink" x="0px" y="0px"
	 viewBox="0 0 900 900" style="enable-background:new 0 0 900 900;" xml:space="preserve">
<style type="text/css">
	.st0{fill:#1E3160;}
	.st1{fill:#D7D8DA;}
	.st2{fill:#FFFFFF;}
	.st3{clip-path:url(#SVGID_2_);}
	.st4{clip-path:url(#SVGID_4_);}
	.st5{fill:#343131;}
	.st6{fill:#C8C8C8;}
	.st7{fill:#949494;}
	.st8{fill:#323433;}
	.st9{fill:none;stroke:#343131;stroke-width:1.5;stroke-linejoin:round;stroke-miterlimit:10;}
</style>
<g>
	<path class="st0" d="M899.6,450c0,29-32.7,54.4-38.1,81.9c-5.6,28.3,14.8,64.2,4,90.2c-11,26.5-50.9,37.4-66.7,60.9
		c-15.9,23.7-10.8,64.8-30.9,84.9c-20.1,20.1-61.2,15-84.9,30.9c-23.5,15.7-34.5,55.7-60.9,66.7c-26,10.8-62-9.6-90.2-4
		c-27.4,5.4-52.8,38.1-81.9,38.1c-29,0-54.4-32.7-81.9-38.1c-28.3-5.6-64.2,14.8-90.2,4c-26.5-11-37.4-50.9-60.9-66.7
		c-23.7-15.9-64.8-10.8-84.9-30.9c-20.1-20.1-15-61.2-30.9-84.9c-15.7-23.5-55.7-34.5-66.7-60.9c-10.8-26,9.6-62,4-90.2
		C33.1,504.4,0.4,479,0.4,450s32.7-54.4,38.1-81.9c5.6-28.3-14.8-64.2-4-90.2c11-26.5,50.9-37.4,66.7-60.9
		c15.9-23.7,10.8-64.8,30.9-84.9s61.2-15,84.9-30.9c23.5-15.7,34.5-55.7,60.9-66.7c26-10.8,62,9.6,90.2,4
		C395.6,33.1,421,0.4,450,0.4s54.4,32.7,81.9,38.1c28.3,5.6,64.2-14.8,90.2-4c26.5,11,37.4,50.9,60.9,66.7
		c23.7,15.9,64.8,10.8,84.9,30.9c20.1,20.1,15,61.2,30.9,84.9c15.7,23.5,55.7,34.5,66.7,60.9c10.8,26-9.6,62-4,90.2
		C866.9,395.6,899.6,421,899.6,450z"/>
	<circle class="st1" cx="450" cy="449.9" r="383.6"/>
	<circle class="st2" cx="450" cy="449.9" r="302.8"/>
	<g>
		<path class="st0" d="M450,760.6c-171.3,0-310.7-139.4-310.7-310.7S278.7,139.2,450,139.2s310.7,139.4,310.7,310.7
			S621.3,760.6,450,760.6z M450,152.4c-164,0-297.5,133.5-297.5,297.5S286,747.4,450,747.4S747.5,614,747.5,449.9
			C747.5,285.9,614,152.4,450,152.4z"/>
	</g>
	<path class="st1" d="M450,654.3c-12.8-11.6-34.2-25.9-73.5-25.9c-54.3,0-74.9-39.2-79.6-54.9c-0.8-2.7-2.4-6.2-2.4-9.3l2.6-261.1
		H604v264.2c0,3.1,1.8,4.4,1,7.1c-4.7,15.7-29.3,52.3-75.2,54C490.4,629.8,462.8,642.7,450,654.3z"/>
	<g>
		<g>
			<defs>
				<path id="SVGID_1_" d="M298.9,480.9v88.6c0,0-4.4,35.3,48.5,54.5c16.9,4.3,77.6,2.1,102.6,30.3V479.2L298.9,480.9z"/>
			</defs>
			<clipPath id="SVGID_2_">
				<use xlink:href="#SVGID_1_"  style="overflow:visible;"/>
			</clipPath>
			<g class="st3">
				<path class="st0" d="M643.7,617.8l-1.7-0.4c-2.5-0.7-2.6-0.8-4.1-73.2c-0.1-4.2-0.2-8.4-0.3-12.6c-1,27.3-1.8,58.2-1.8,60.5
					c0,1.4-1.2,2.7-3,3.4c-2.3,0.8-5.7,0.5-8.3-2.7l-0.2-0.4c-2.1-4-4.2-6.1-6.1-6.3c-3.1-0.2-6.5,4.7-8.1,7.1
					c-0.7,0.9-1.1,1.6-1.6,2.1c-0.7,0.7-1.6,1-2.6,1c-2.3-0.1-4.3-2.2-6.9-5.2c-0.4-0.5-1-1.1-1.3-1.5c-0.6,0.2-1.6,0.6-2.3,0.9
					c-3.7,1.6-8.2,3.6-11.1,1l-0.2-0.2l-0.2-0.3c-0.6-1-1.3-1.6-1.9-1.7c-1.8-0.3-4.8,2.4-7.3,4.5c-1.8,1.6-3.6,3.1-5.3,4
					c-0.9,0.5-1.9,0.5-2.9,0.1c-3.6-1.5-6.5-9.6-11.9-26.4c-1.9-6.1-4.3-13.5-5.7-16.1c-2.1,2.1-5.8,9.8-11,23
					c-1.4,3.5-1.7,4.3-2,4.8c-1.2,1.9-3.1,1.8-4.4,1.8c-0.9,0-1.8-0.1-3.1,0.2c-4.5,6.3-6.5,8.6-8.9,8.5c-1.7-0.1-2.7-1.2-3.6-2.6
					c-1.3,2.5-1.8,10.4-2.1,14c-0.6,8-0.9,11.3-3.4,12.3l-1.1,0.5L508,617c-2-1.3-2.5-4.2-2.8-66.2c-0.1-11.8-0.1-25-0.3-36.1
					c-0.8,15-1.4,36.8-2,65.3c-0.1,5.3-0.2,8.5-0.2,9.3c-0.2,3.8-2,6.6-4.5,7.2c-1.7,0.4-4.4-0.1-7-4.6c-1.1-2-3.8-6.6-6-6.7
					c0,0,0,0-0.1,0c-1.3,0-3,1.5-4.9,4.2c-2.6,3.8-5,5.6-7.5,5.6c-3.1,0.1-5-2.3-6.3-4c-0.2-0.3-0.5-0.7-0.8-0.9
					c-1.4-0.1-5.6,1.5-7.4,2.1c-2.4,0.9-3.3,1.2-4,1.2c-1.5,0-2.7-1.1-4.4-2.6c-0.6-0.5-1.5-1.4-2.2-1.8c-0.5,0.5-1.2,1.3-1.7,2
					c-2.6,3.1-6.1,7.5-10.8,7c-4.1-0.4-6.6-7.3-11.9-24.1c-2-6.4-5-15.8-6.7-18.2c-3.5,2.9-11.1,21.1-12.7,26.2l-0.5,1.4
					c-0.7,1.1-1.8,1.2-2.9,1.2s-3.6,0.1-4.6,0.8c-0.4,0.3-1.3,1.3-2.1,2.2c-2.5,2.8-5.1,5.7-8,5.3c-0.6-0.1-1.4-0.3-2.2-1
					c-1.1,2.9-2.1,10-2.6,14.1c-1.2,8.8-1.6,11.4-4.3,11.4c-3.2,0-3.2,0-3.4-52.7c0-15.1-0.1-33-0.3-47.5
					c-0.3,7.4-0.6,15.5-0.8,22.9c-1.3,39-2,51.5-3.9,54.1c-1,1.4-2.3,1.7-3.2,1.8c-2.9,0.1-5.6-2.8-8.6-6.2
					c-1.3-1.5-3.7-4.2-4.9-4.7c-5.4,7.7-7.7,10.5-10.4,10.8c-2.2,0.2-3.7-1.2-5.4-2.8l-0.6-0.5c-2.6-2.5-3.8-2-7.2-0.8
					c-0.7,0.3-1.5,0.5-2.3,0.8c-4.5,1.4-8-0.8-10.1-2.2c-0.3-0.2-0.7-0.4-1-0.6c-0.4,0.4-0.9,1-1.3,1.4c-1.9,2.2-4.8,5.6-9.2,6.5
					c-5.4,1.1-9.5-8.5-17.2-32.1c-1.4-4.3-2.7-8.4-3.7-10.6c-2.4,2.9-6.6,11.4-9,16.3c-3.8,7.6-5.3,10.6-6.7,11.7l-0.5,0.4l-0.6,0.1
					c-2.7,0.5-5.5,3.1-6.6,4.4c-0.5,1-1.9,3.4-4.3,4.2c-1.1,0.3-2.7,0.4-4.6-0.9c-0.9,0.9-2.6,4.6-4.2,19.1c-0.4,4-0.6,5.3-2.6,5.4
					l-1.9,0.2l-0.6-1.9c-0.2-0.8-0.4-4-1.4-37.2c-0.4-13.5-0.9-30.9-1.5-46.7c-1,26.2-1.9,56-1.9,58.9c0,1.4-0.7,5.5-3.9,6.8
					c-2.3,0.9-4.9,0-7.6-2.9l-0.2-0.3l-0.2-0.3c-3.4-6.9-5.7-7.7-6.5-7.7c-2.2-0.1-4.8,4.3-6.3,6.9l-0.3,0.5
					c-1.1,1.8-2.5,2.8-4.1,3.1c-3.1,0.4-5.7-2.1-7.9-4.2c-0.5-0.5-1.3-1.2-1.6-1.5c-0.9,0.1-3.4,1.6-5.3,3.2l-3-3.5
					c2-1.7,6.9-5.4,10.2-4c1,0.4,1.9,1.3,3.1,2.4c1,1,3.1,3.1,4,2.9c0.1,0,0.4-0.3,0.8-0.8l0.3-0.5c2.3-3.9,5.4-9.1,10.2-9.1
					c0.1,0,0.2,0,0.2,0c3.7,0.1,7,3.3,10.4,10c1.5,1.5,2.2,1.6,2.3,1.6l0,0c0.4-0.2,0.9-1.7,0.9-2.5c0-0.7,0.7-25.4,1.6-50.5
					c1.8-50.8,2.3-51,4.1-51.8l1.3-0.6l1.2,0.9c1.4,1.1,1.8,1.5,4.4,89.6c0.2,5.3,0.3,10.5,0.5,15.2c1-2.5,2.1-4.2,3.7-4.9
					c1.4-0.7,2.9-0.5,4.3,0.4c0.2,0.2,0.6,0.4,0.8,0.3c0.5-0.1,1.2-1.2,1.5-1.8l0.1-0.3l0.2-0.3c0.4-0.5,4.1-4.8,8.8-6
					c1-1.4,3.3-6.1,5.2-9.9c7.2-14.7,10.2-19.6,13.5-19.7c1.2,0,2.3,0.6,3,1.8c1,1.8,2.4,5.8,4.7,12.8c2.7,8.2,8.9,27.1,12.1,28.9
					c2.7-0.7,4.8-3.1,6.4-5s3.2-3.7,5.4-3.2c1,0.2,1.9,0.8,2.8,1.5c2.2,1.4,3.9,2.4,6.2,1.7c0.8-0.2,1.5-0.5,2.2-0.7
					c3.6-1.3,7.3-2.6,11.9,1.8l0.6,0.6c0.6,0.6,1.4,1.3,1.8,1.6c1.3-0.6,5.2-6.1,7.5-9.5l0.2-0.3l0.3-0.2c3.7-3,7.9,1.7,11.2,5.4
					c1.3,1.5,3.5,3.9,4.6,4.5c1.4-4.4,2.3-30.3,2.9-51.3c1.7-50.7,2.3-52.6,5.2-53.4l1.1-0.3l1.1,0.7c2.1,1.6,2.8,8,3.1,77.8
					c0,10.3,0.1,21.2,0.2,30.2c1-5,2.2-7.5,4.4-8.2c0.8-0.2,2.3-0.4,3.8,1.2l0.3,0.4c1-0.6,2.9-2.6,3.8-3.7c1.2-1.3,2.1-2.3,3-2.9
					c1.9-1.3,4.6-1.5,6.3-1.6c0.6-1.7,1.6-4.4,3.5-8.9c2.1-5.1,5.3-12,8.1-16.1c1.4-2,3.4-4.4,5.9-4.1c3.5,0.4,5.6,5.9,10.6,21.7
					c2.3,7.2,6,19.2,8.1,20.9c2.2,0,4.9-3.2,6.6-5.4c2-2.4,3.6-4.4,5.8-3.8c1.6,0.4,3.2,1.8,4.7,3.1c0.5,0.4,1.2,1,1.6,1.3
					c0.6-0.2,1.5-0.5,2.2-0.8c5.4-2,9.2-3.2,11.4-1.8c0.8,0.5,1.4,1.3,2,2.1c0.7,0.9,1.7,2.2,2.5,2.2c0.7,0,2.1-1,3.9-3.6
					c3-4.3,6-6.4,9-6.2c4.4,0.2,7.4,4.7,9.8,9c1,1.7,1.7,2.3,2,2.4c0.3-0.3,0.8-1.4,0.9-2.9c0-0.7,0.1-4.2,0.2-9.1
					c1.8-93.5,3.9-93.5,7.5-93.5h0.6l0.5,0.3c2.1,1.1,2.6,1.4,2.9,64.1c0.1,14.3,0.2,30.5,0.4,42.9c0.6-3.3,1.6-5.8,3.2-7.1
					c1-0.8,2.2-1.2,3.5-1l1.1,0.1l0.6,0.9c0.2,0.4,0.4,0.7,0.6,1c0.2,0.3,0.4,0.6,0.5,0.9c1.4-1.4,4-5.1,5.3-6.8l0.5-0.6l0.7-0.2
					c2.4-0.7,4.1-0.7,5.3-0.7c0.2,0,0.4,0,0.5,0c0.3-0.6,0.9-2.2,1.5-3.6c7.5-19,11.3-25.6,15-26.3c1.2-0.2,2.4,0.2,3.3,1.2
					c1.9,2.1,3.9,8.1,7.2,18.5c2.5,7.8,6.6,20.6,8.9,23.2c1.1-0.7,2.4-1.8,3.7-3c3.3-2.9,7.1-6.2,11-5.6c1.9,0.3,3.5,1.4,4.8,3.4
					c1.1,0.3,4.6-1.2,6-1.8c2.7-1.2,4.4-1.9,6-1.1c0.9,0.4,1.6,1.3,3,2.9c0.8,0.9,2.3,2.6,3.2,3.3c0.2-0.3,0.4-0.6,0.6-0.8
					c2.3-3.3,6.5-9.4,12.2-9c3.7,0.2,6.9,3,9.8,8.5c0.6,0.7,1.3,1.1,2,1.2c0.4,0,0.7,0,0.9-0.1c0.1-4.9,0.6-27.9,1.4-50.6
					c1.8-52.2,2.9-52.8,4.5-53.7l1.2-0.7l0.9,0.5c1.8,0.4,1.9,1.4,2.4,19.1c0.3,10.3,0.6,23.9,0.9,38.4c0.3,15.9,0.7,33.8,1.2,47.6
					c0.7-2.7,1.5-4.5,2.8-5.4c0.9-0.6,2-0.8,3-0.6c4.3,1.1,7.7,0.5,7.7,0.5l0.9,4.5c-0.2,0-4.1,0.8-9.2-0.4
					c-1.3,2.2-2.1,11.1-2.5,15.6c-0.6,6.8-0.9,9.3-1.8,10.6L643.7,617.8z"/>
			</g>
		</g>
	</g>
	<g>
		<g>
			<defs>
				<rect id="SVGID_3_" x="454.9" y="307.8" width="146.1" height="163.8"/>
			</defs>
			<clipPath id="SVGID_4_">
				<use xlink:href="#SVGID_3_"  style="overflow:visible;"/>
			</clipPath>
			<g class="st4">
				<path class="st2" d="M513.7,420.9v174c0,7.8,6.3,33.8,14.1,33.8h0.2c7.8,0,14.2-26.1,14.2-33.8v-174"/>
				<g>
					<path class="st5" d="M528,630.8c-10.2,0-16.2-28.4-16.2-35.8V421h4v174c0,8.8,6.7,31.9,12.1,31.9c5.6,0,12.4-23.1,12.4-31.9
						V421h4v174C544.2,602.1,537.9,630.8,528,630.8z"/>
				</g>
				<g>
					<path class="st5" d="M528,544.4c-1.1,0-2-0.9-2-2V420.9c0-1.1,0.9-2,2-2s2,0.9,2,2v121.6C529.9,543.6,529.1,544.4,528,544.4z"
						/>
				</g>
				<path class="st6" d="M498.5,402.1c19,7.1,39.9,7.1,58.9,0c0,7.9,0,15.8,0,23.7c-19-7.1-39.9-7.1-58.9,0
					C498.5,417.9,498.5,410,498.5,402.1z"/>
				<path class="st7" d="M516.6,406.7l3.8-61.7c0-2.5,2.2-4.5,5-4.5h5.3c2.7,0,5,2,5,4.5l3.8,61.7"/>
				<g>
					<path class="st5" d="M537.4,406.8l-3.8-61.7c0-1.5-1.4-2.7-3-2.7h-5.3c-1.6,0-3,1.2-3,2.5l-3.8,61.8l-3.9-0.2l3.8-61.7
						c0-3.5,3.1-6.4,6.9-6.4h5.3c3.8,0,6.9,2.9,6.9,6.5l3.8,61.5L537.4,406.8z"/>
				</g>
				<circle class="st6" cx="528" cy="336.1" r="12.5"/>
				<g>
					<path class="st5" d="M528,350.6c-8,0-14.5-6.5-14.5-14.5s6.5-14.5,14.5-14.5s14.5,6.5,14.5,14.5
						C542.4,344.1,535.9,350.6,528,350.6z M528,325.6c-5.8,0-10.5,4.7-10.5,10.5s4.7,10.5,10.5,10.5s10.5-4.7,10.5-10.5
						C538.5,330.3,533.8,325.6,528,325.6z"/>
				</g>
				<g>
					<path class="st5" d="M557.4,427.8c-0.2,0-0.5,0-0.7-0.1c-18.5-6.9-39-6.9-57.5,0c-0.6,0.2-1.3,0.1-1.8-0.2
						c-0.5-0.4-0.8-1-0.8-1.6v-23.7c0-0.6,0.3-1.3,0.8-1.6c0.5-0.4,1.2-0.5,1.8-0.2c18.5,6.9,39,6.9,57.5,0c0.6-0.2,1.3-0.1,1.8,0.2
						c0.5,0.4,0.8,1,0.8,1.6v23.7c0,0.6-0.3,1.3-0.8,1.6C558.2,427.7,557.8,427.8,557.4,427.8z M500.5,404.9V423
						c17.7-6,37.2-6,54.9,0v-18.1C537.7,410.9,518.2,410.9,500.5,404.9z"/>
				</g>
			</g>
		</g>
	</g>
	<g>
		<path class="st6" d="M372,329.1c0,0-6.6,5.6-6.6,10.5s6.6,5.1,6.6,5.1s6.6-0.2,6.6-5.1S372,329.1,372,329.1z"/>
		<g>
			<path class="st5" d="M372,346.1L372,346.1c-2.8-0.1-7.9-1.5-7.9-6.4c0-5.4,6.8-11.3,7.1-11.5c0.5-0.4,1.2-0.4,1.7,0
				c0.3,0.2,7.1,6.1,7.1,11.5C379.9,344.5,374.8,346,372,346.1L372,346.1z M372,330.9c-2,1.9-5.3,5.7-5.3,8.7c0,3.4,4.8,3.7,5.3,3.8
				c0.6,0,5.3-0.4,5.3-3.8C377.3,336.6,374,332.9,372,330.9z"/>
		</g>
		<rect x="367.4" y="374.9" class="st6" width="9.2" height="58"/>
		<g>
			<path class="st5" d="M376.6,434.1h-9.2c-0.7,0-1.3-0.6-1.3-1.3v-58c0-0.7,0.6-1.3,1.3-1.3h9.2c0.7,0,1.3,0.6,1.3,1.3v58
				C377.9,433.5,377.3,434.1,376.6,434.1z M368.7,431.5h6.6v-55.3h-6.6V431.5z"/>
		</g>
		<g>
			<path class="st6" d="M372,376.4c4.6,0,8.4-3.2,8.4-8.4l-2.3-9.2h-12.2l-2.3,9.2C363.6,373.2,367.3,376.4,372,376.4"/>
		</g>
		<g>
			<g>
				<path class="st5" d="M372,377.8c-5.6,0-9.7-4.1-9.7-9.7c0-0.1,0-0.2,0-0.3l2.3-9.2c0.1-0.6,0.7-1,1.3-1h12.2
					c0.6,0,1.1,0.4,1.3,1l2.3,9.2c0,0.1,0,0.2,0,0.3C381.7,373.7,377.6,377.8,372,377.8z M364.9,368.2c0.1,4.1,3,6.9,7.1,6.9
					s7-2.8,7.1-6.9l-2-8h-10.2L364.9,368.2z"/>
			</g>
		</g>
		<path class="st6" d="M359.8,441.9c0-6.7,5.5-12.2,12.2-12.2s12.2,5.5,12.2,12.2"/>
		<g>
			<path class="st5" d="M384.2,443.2c-0.7,0-1.3-0.6-1.3-1.3c0-6-4.9-10.9-10.9-10.9s-10.9,4.9-10.9,10.9c0,0.7-0.6,1.3-1.3,1.3
				s-1.3-0.6-1.3-1.3c0-7.4,6.1-13.5,13.5-13.5s13.5,6.1,13.5,13.5C385.5,442.6,384.9,443.2,384.2,443.2z"/>
		</g>
		<path class="st6" d="M397.9,441.9h-51.8c-1.2,0-2.2,1-2.2,2.2v6.9H400v-6.9C400.1,442.9,399.1,441.9,397.9,441.9z"/>
		<g>
			<path class="st5" d="M400.1,452.3H344c-0.7,0-1.3-0.6-1.3-1.3v-3.4c0-3.9,3.2-7,7-7h44.7c3.9,0,7,3.2,7,7v3.4
				C401.4,451.7,400.8,452.3,400.1,452.3z M345.2,449.7h53.5v-2c0-2.4-2-4.4-4.4-4.4h-44.7c-2.4,0-4.4,2-4.4,4.4V449.7z"/>
		</g>
		<path class="st7" d="M431.9,395.1c0,11.1-10.5,20.1-23.5,20.1s-23.5-9-23.5-20.1"/>
		<g>
			<path class="st5" d="M408.4,416.5c-13.7,0-24.8-9.6-24.8-21.4c0-0.7,0.6-1.3,1.3-1.3h47c0.7,0,1.3,0.6,1.3,1.3
				C433.2,406.9,422.1,416.5,408.4,416.5z M386.3,396.4c0.8,9.7,10.4,17.4,22.1,17.4s21.3-7.7,22.1-17.4H386.3z"/>
		</g>
		<g>
			<g>
				<path class="st5" d="M423.1,396.4c-0.5,0-1-0.3-1.2-0.8L407.2,359c-0.3-0.7,0.1-1.4,0.7-1.7c0.7-0.3,1.4,0.1,1.7,0.7l14.7,36.6
					c0.3,0.7-0.1,1.4-0.7,1.7C423.4,396.4,423.3,396.4,423.1,396.4z"/>
			</g>
			<g>
				<path class="st5" d="M393.6,396.4c-0.2,0-0.3,0-0.5-0.1c-0.7-0.3-1-1-0.7-1.7l14.7-36.6c0.3-0.7,1-1,1.7-0.7s1,1,0.7,1.7
					l-14.7,36.6C394.7,396.1,394.2,396.4,393.6,396.4z"/>
			</g>
		</g>
		<path class="st7" d="M359.1,395.1c0,11.1-10.5,20.1-23.5,20.1s-23.5-9-23.5-20.1"/>
		<g>
			<path class="st5" d="M335.6,416.5c-13.7,0-24.8-9.6-24.8-21.4c0-0.7,0.6-1.3,1.3-1.3h47c0.7,0,1.3,0.6,1.3,1.3
				C360.4,406.9,349.3,416.5,335.6,416.5z M313.5,396.4c0.8,9.7,10.4,17.4,22.1,17.4s21.3-7.7,22.1-17.4H313.5z"/>
		</g>
		<g>
			<g>
				<path class="st5" d="M350.3,396.4c-0.5,0-1-0.3-1.2-0.8L334.4,359c-0.3-0.7,0.1-1.4,0.7-1.7c0.7-0.3,1.4,0.1,1.7,0.7l14.7,36.6
					c0.3,0.7-0.1,1.4-0.7,1.7C350.7,396.4,350.5,396.4,350.3,396.4z"/>
			</g>
			<g>
				<path class="st5" d="M320.9,396.4c-0.2,0-0.3,0-0.5-0.1c-0.7-0.3-1-1-0.7-1.7l14.7-36.6c0.3-0.7,1-1,1.7-0.7s1,1,0.7,1.7
					l-14.7,36.6C321.9,396.1,321.4,396.4,320.9,396.4z"/>
			</g>
		</g>
		<g>
			<path class="st5" d="M408.4,356.3c-0.3,0-0.7-0.1-1-0.2c-3.5-1.8-13.7-6.5-18.5-6.9c-4.3-0.4-9.2,3.3-10.8,4.8
				c-0.9,0.9-2.3,0.8-3.2-0.1c-0.9-0.9-0.8-2.3,0.1-3.2c0.3-0.3,7.1-6.6,14.3-6c6.6,0.6,19.5,7.1,20.1,7.4c1.1,0.6,1.5,1.9,1,3
				C410,355.8,409.2,356.3,408.4,356.3z"/>
		</g>
		<g>
			<path class="st5" d="M335.6,356.3c-0.8,0-1.6-0.5-2-1.2c-0.6-1.1-0.1-2.5,1-3c0.5-0.3,13.4-6.8,20.1-7.4c7.2-0.7,14,5.7,14.3,6
				c0.9,0.9,0.9,2.3,0.1,3.2c-0.9,0.9-2.3,0.9-3.2,0.1c-0.1-0.1-5.6-5.3-10.8-4.8c-4.8,0.5-15,5.2-18.5,6.9
				C336.3,356.2,335.9,356.3,335.6,356.3z"/>
		</g>
		<circle class="st6" cx="335.6" cy="354" r="3.8"/>
		<g>
			<path class="st5" d="M335.6,359.1c-2.8,0-5.1-2.3-5.1-5.1c0-2.8,2.3-5.1,5.1-5.1c2.8,0,5.1,2.3,5.1,5.1
				C340.7,356.8,338.4,359.1,335.6,359.1z M335.6,351.6c-1.3,0-2.4,1.1-2.4,2.4s1.1,2.4,2.4,2.4c1.4,0,2.5-1.1,2.5-2.4
				C338,352.7,336.9,351.6,335.6,351.6z"/>
		</g>
		<circle class="st6" cx="408.4" cy="354" r="3.8"/>
		<g>
			<path class="st5" d="M408.4,359.1c-2.8,0-5.1-2.3-5.1-5.1c0-2.8,2.3-5.1,5.1-5.1c2.8,0,5.1,2.3,5.1,5.1
				C413.5,356.8,411.2,359.1,408.4,359.1z M408.4,351.6c-1.3,0-2.4,1.1-2.4,2.4s1.1,2.4,2.4,2.4s2.4-1.1,2.4-2.4
				S409.7,351.6,408.4,351.6z"/>
		</g>
		<circle class="st6" cx="372" cy="353.1" r="8.4"/>
		<g>
			<path class="st5" d="M372,362.9c-5.4,0-9.7-4.4-9.7-9.7c0-5.4,4.4-9.7,9.7-9.7c5.4,0,9.7,4.4,9.7,9.7S377.3,362.9,372,362.9z
				 M372,346.1c-3.9,0-7.1,3.2-7.1,7.1s3.2,7.1,7.1,7.1s7.1-3.2,7.1-7.1S375.9,346.1,372,346.1z"/>
		</g>
	</g>
	<g>
		<g>
			<path class="st0" d="M450.3,663.2c-0.2,0.3-0.6,0.3-0.8,0l-3.6-5.2c-0.1-0.2-12.4-16.8-59.7-23.7c-27.1-1.8-63.5-9.5-84-35.5
				c-12.6-16-13.1-31.3-13.1-32V298.4h321.8v268.4c0,0.8-0.5,16.1-13.1,32.1c-20.5,26-57,33.6-84,35.5
				c-47.3,6.9-59.6,23.5-59.7,23.7L450.3,663.2z M298.9,308.2v258.6c0.1,2,2.6,52,88.2,57.7h0.4c37.8,5.5,55.5,17.1,62.6,23.5
				c7.1-6.4,24.7-18,62.6-23.5h0.4c86-5.8,88.1-57.3,88.2-57.9V308.2H298.9z"/>
		</g>
		<rect x="445.1" y="304.1" class="st0" width="9.8" height="344.4"/>
		<rect x="294.4" y="471.7" class="st0" width="311.6" height="9.8"/>
	</g>
	<g>
		<path class="st0" d="M395.9,689.2c-1.5,22.2,21.7,38.6,48.2,38.4c0.9,0-21.4-6.8-31.2-19.4c15.2,9.7,33.4,16,33.2,14.5
			c-0.1-0.7-0.2-1.4-0.3-2C440.6,693.1,422.2,704.6,395.9,689.2z"/>
		<path class="st0" d="M358.7,712.1c18,0.5,36.9-3.4,35.9-4.6c-0.4-0.5-0.9-1-1.3-1.5c-18.6-20.9-28.5-1.7-58.9-1.4
			c10.2,19.8,38.4,22,61.1,8.2C396.2,712.3,373.6,717.9,358.7,712.1z"/>
		<path class="st0" d="M347.4,667.3c15.9,16.3,8.1,21.6,17.7,28.5c3.7-1.5,7.5-2.7,11.3-2.5c-3.8-12-13.9-19.6-13-19.4
			c0.9,0.2,14.4,7.5,18.9,20.6c4.1,1.4,7.5,4.5,10.6,7.8C391.9,676.1,367.4,661.3,347.4,667.3z"/>
		<path class="st0" d="M309.7,690.2c17.2,3.8,36.1,3.5,35.3,2.2c-0.3-0.6-0.7-1.2-1-1.7c-14-23.5-27.1-6.8-56.3-12.1
			c6.1,20.9,32.9,28.2,57.2,19.1C345.7,697.2,323,698.5,309.7,690.2z"/>
		<path class="st0" d="M321.3,654.4c0.8,0.3,12.5,9.8,14.4,23.3c3.7,2.1,6.4,5.7,8.8,9.4c3.8-25.3-17.1-44-37.4-41.9
			c12.2,18.6,3.8,22.2,11.8,30.7c3.8-0.8,7.7-1.2,11.3-0.3C328.8,663.2,320.5,654,321.3,654.4z"/>
		<path class="st0" d="M298.6,672.9c0.8-0.1-21.2-3.1-32.4-13.6c15.9,6.8,34,10,33.5,8.6c-0.2-0.6-0.4-1.2-0.6-1.8
			c-9.1-25.2-24.7-11.5-51.9-22C249.2,665.2,273.6,677.2,298.6,672.9z"/>
		<path class="st0" d="M300.1,662.7c8.3-23.6-8.3-45.4-28.2-47.1c8.3,20.1-0.4,22.1,5.7,31.6c3.8-0.1,7.6,0.3,10.9,1.8
			c0.8-12.1-5.4-22.4-4.7-21.9c0.7,0.5,10.2,11.7,9.5,25C296.5,654.8,298.5,658.7,300.1,662.7z"/>
		<path class="st0" d="M229.4,619.9c14,9.4,30.8,15.8,30.6,14.4c-0.1-0.6-0.2-1.3-0.3-1.9c-4.1-25.8-21.6-15.6-45.7-30.6
			c-1.9,20.7,19.2,36.6,44,37.1C258.8,638.8,238.3,631.9,229.4,619.9z"/>
		<path class="st0" d="M261.4,629.4c12.3-21.1,0.4-45.1-18.4-50.4c4.3,20.8-4.5,21.1-0.3,31.4c3.7,0.6,7.3,1.7,10.2,3.7
			c3-11.4-1.1-22.4-0.5-21.8c0.6,0.6,7.6,13.1,4.5,25.7C259.4,621.1,260.6,625.2,261.4,629.4z"/>
		<path class="st0" d="M201.7,575.4c11.7,11.6,26.6,20.8,26.7,19.4c0-0.6,0.1-1.2,0.1-1.8c0.8-25.5-17.9-18.9-38.2-37.8
			c-5.7,19.5,11.7,38.7,35.4,43.6C226.5,599,208,588.6,201.7,575.4z"/>
		<path class="st0" d="M230.6,590.4c15.7-18,8.6-43.2-8.4-51.7c0.3,20.8-8.2,19.4-6.1,30c3.4,1.3,6.7,2.9,9.1,5.4
			c5-10.4,3.1-21.7,3.6-21s4.9,14-0.4,25.5C230.3,582.1,230.7,586.3,230.6,590.4z"/>
		<path class="st0" d="M181.5,528.2c9.1,13.3,21.7,24.8,22,23.5c0.2-0.6,0.3-1.2,0.4-1.7c5.4-24.3-13.7-21.4-29.7-43.2
			c-9,17.7,4.1,39.2,25.9,48.3C200.9,555.3,185.1,542,181.5,528.2z"/>
		<path class="st0" d="M207.9,496.7c-3.5,20-11.4,17.1-11.3,27.7c3,1.9,5.9,4,7.7,6.9c6.7-9,6.9-20.3,7.3-19.5
			c0.4,0.8,2.1,14.3-5,24.4c1.1,3.7,0.7,7.8-0.1,11.7C224.8,533.4,222.7,508,207.9,496.7z"/>
		<path class="st0" d="M185.6,506.9c0.6,0.4-12.1-15.3-13-29.2c6.2,14.4,16.2,27.8,16.8,26.6c0.3-0.5,0.5-1.1,0.7-1.6
			c9.7-22.3-9.1-23-20.5-46.9C157.8,471.1,166.4,494.2,185.6,506.9z"/>
		<path class="st0" d="M203.7,452.4c-7,18.5-14,14.3-15.9,24.4c2.6,2.3,4.9,4.9,6.1,8c8.1-7.4,10.4-18.1,10.5-17.4
			c0.2,0.8-0.6,14.1-9.3,22.4c0.4,3.7-0.8,7.6-2.2,11.2C213.1,490.7,215.8,466,203.7,452.4z"/>
		<path class="st0" d="M172.4,429.1c3.3,14.9,10.4,29.6,11.2,28.5c0.3-0.5,0.7-0.9,1-1.4c13.3-19.6-4.5-23.7-11.1-48.6
			c-14.2,12.4-10.1,36.1,5.9,51.8C180,459.9,170.7,442.5,172.4,429.1z"/>
		<path class="st0" d="M191.7,444.9c-0.3,3.6-2.1,7.1-4.2,10.3c21.2-6.3,28.3-29.5,19.2-44.6c-10.1,16.4-16.1,11.1-19.7,20.5
			c2,2.7,3.8,5.6,4.4,8.8c9.1-5.6,13.2-15.5,13.3-14.7C204.8,425.9,201.6,438.5,191.7,444.9z"/>
		<path class="st0" d="M182.7,379.6c0.5,14.9,4.6,30.2,5.5,29.3c0.4-0.4,0.8-0.8,1.2-1.2c16.3-16.3,0-23.5-1.7-48.5
			c-15.8,9.3-16.3,32.7-3.8,50.7C184.3,410.5,178.6,392.2,182.7,379.6z"/>
		<path class="st0" d="M198.3,398.3c-1,3.4-3.3,6.4-5.9,9.1c21.5-2.1,32.5-23,26.6-39.2c-12.7,13.8-17.4,7.7-22.6,16
			c1.4,3,2.6,6.1,2.6,9.2c9.7-3.7,15.5-12.4,15.4-11.6C214.3,382.5,208.9,394,198.3,398.3z"/>
		<path class="st0" d="M199.7,334.8c-2.3,14.3-1.1,29.7-0.1,29c0.5-0.3,0.9-0.6,1.4-0.9c18.6-12.6,4.3-22.5,7.3-46.7
			c-16.8,6-21.5,28.3-12.9,47.7C195.6,364.6,193.5,346.1,199.7,334.8z"/>
		<path class="st0" d="M211.2,355.5c-1.6,3.1-4.3,5.5-7.3,7.6c20.9,1.9,35.3-16.1,32.6-32.6c-14.6,10.9-18,4.2-24.6,11.1
			c0.8,3.1,1.3,6.3,0.8,9.3c10-1.8,17.1-9,16.8-8.3C229.3,343.4,222.1,353.3,211.2,355.5z"/>
		<path class="st0" d="M224.5,296.8c-4.8,13.2-6.5,28.2-5.4,27.7c0.5-0.2,1-0.4,1.5-0.6c20.1-8.6,8.2-20.7,15.5-43.3
			c-17.2,2.7-25.8,23.1-21.1,43.2C215.1,324.5,216.5,306.4,224.5,296.8z"/>
		<path class="st0" d="M234,314.5c9.9,0.1,18-5.5,17.6-4.8c-0.4,0.6-9.1,8.8-19.9,8.9c-2.1,2.7-5.2,4.5-8.4,6
			c19.6,5.6,36.6-8.9,37.1-25.2c-16,7.7-18,0.7-25.5,6.1C235.1,308.6,235,311.8,234,314.5z"/>
		<path class="st0" d="M256.3,263.7c-7,11.8-11.4,25.7-10.2,25.5c0.5-0.1,1-0.2,1.5-0.3c20.7-4.6,11.6-18.3,22.7-38.5
			c-16.9-0.6-28.8,17.3-28,37.4C242.3,288.4,246.9,271.4,256.3,263.7z"/>
		<path class="st0" d="M290.1,272.8c-16.7,4.5-17.3-2.6-25.5,1.2c-0.3,3-1,6-2.5,8.4c9.4,1.9,18.2-1.9,17.7-1.4s-10.3,6.8-20.6,4.9
			c-2.5,2.2-5.7,3.3-9.1,4.2C267.8,299,286.7,288.2,290.1,272.8z"/>
		<path class="st0" d="M291,237c-8.8,10-15.5,22.4-14.4,22.4c0.5,0,1,0,1.5,0c20.6-0.6,14.4-15.3,28.7-32.6
			c-16-3.7-30.6,11.3-33.5,30.6C273.2,258,280.7,242.7,291,237z"/>
		<path class="st0" d="M321.6,251.8c-16.7,1.2-16-5.7-24.5-3.5c-0.9,2.8-2.1,5.5-3.9,7.6c8.6,3.5,17.7,1.5,17.1,1.9
			c-0.5,0.4-11,4.6-20.6,0.9c-2.7,1.6-6.1,2.1-9.4,2.3C295.6,272.8,315.5,266,321.6,251.8z"/>
		<path class="st0" d="M330.8,218c-10.2,7.9-18.9,18.5-17.8,18.8c0.5,0.1,1,0.2,1.4,0.3c19.8,3.2,16.5-11.9,33.3-25.8
			c-14.6-6.4-31.2,5.1-37.5,23C309.9,234.8,319.9,221.5,330.8,218z"/>
		<path class="st0" d="M334.5,229.9c-1.3,2.5-3,4.9-5.1,6.5c7.6,4.9,16.6,4.6,16,4.9c-0.6,0.3-11.4,2.4-19.8-2.9
			c-2.9,1.1-6.2,0.9-9.4,0.5c12.4,14,32.7,11.1,41-1.2C341.1,235.8,343,229.3,334.5,229.9z"/>
		<path class="st0" d="M454.2,720.6c-0.1,0.6-0.2,1.3-0.3,2c-0.2,1.5,17.9-4.8,33.2-14.5c-9.8,12.6-32,19.4-31.2,19.4
			c26.5,0.3,49.6-16.1,48.2-38.4C477.8,704.6,459.4,693.1,454.2,720.6z"/>
		<path class="st0" d="M463.3,677.8c0.7-0.6-4,11.1-1.1,23.4c3.2-2.1,7-3.1,11-3.7c4.7-10.9-4.7-11.4,0.6-33.6
			c-10.9,2.7-19.8,11.3-23.8,22.2c-4-10.9-12.9-19.5-23.8-22.2c5.2,22.1-4.2,22.7,0.6,33.6c4,0.6,7.8,1.6,11,3.7
			c2.9-12.3-1.8-24-1.1-23.4c0.7,0.6,8.5,13.8,5.6,27.4c2.8,3.3,4.2,7.7,5.1,12.1c1-1.9,1.9-3.8,2.6-5.8c0.7,1.9,1.5,3.8,2.6,5.8
			c0.9-4.4,2.3-8.8,5.1-12.1C454.8,691.6,462.6,678.4,463.3,677.8z"/>
		<path class="st0" d="M506.7,705.9c-0.4,0.5-0.9,1-1.3,1.5c-1,1.2,17.9,5.1,35.9,4.6c-14.9,5.8-37.5,0.2-36.7,0.7
			c22.6,13.8,50.9,11.7,61.1-8.2C535.2,704.3,525.3,685,506.7,705.9z"/>
		<path class="st0" d="M517.6,694.5c4.5-13.1,18-20.4,18.9-20.6c0.9-0.2-9.1,7.4-13,19.4c3.8-0.2,7.6,1,11.3,2.5
			c9.7-6.9,1.9-12.2,17.7-28.5c-20-6-44.5,8.8-45.6,34.9C510.1,698.9,513.5,695.9,517.6,694.5z"/>
		<path class="st0" d="M555.9,690.6c-0.3,0.5-0.7,1.1-1,1.7c-0.7,1.3,18.1,1.6,35.3-2.2c-13.2,8.3-36,7.1-35.2,7.4
			c24.3,9.1,51,1.8,57.2-19.1C583,683.8,570,667.1,555.9,690.6z"/>
		<path class="st0" d="M581.1,675.8c8-8.4-0.4-12.1,11.8-30.7c-20.3-2.1-41.2,16.6-37.4,41.9c2.3-3.7,5.1-7.3,8.8-9.4
			c1.9-13.4,13.5-22.9,14.4-23.3c0.9-0.3-7.4,8.8-8.9,21.1C573.4,674.6,577.3,674.9,581.1,675.8z"/>
		<path class="st0" d="M601,666.1c-0.2,0.6-0.4,1.2-0.6,1.8c-0.5,1.4,17.7-1.8,33.5-8.6c-11.2,10.4-33.2,13.4-32.4,13.6
			c25,4.3,49.3-7.6,51.4-28.8C625.7,654.5,610.1,640.9,601,666.1z"/>
		<path class="st0" d="M599.9,662.7c1.6-4,3.6-8,6.7-10.7c-0.7-13.3,8.8-24.5,9.5-25c0.8-0.5-5.5,9.8-4.7,21.9
			c3.3-1.5,7.1-1.8,10.9-1.8c6.1-9.6-2.6-11.5,5.7-31.6C608.2,617.3,591.6,639.1,599.9,662.7z"/>
		<path class="st0" d="M640.2,632.4c-0.1,0.6-0.2,1.2-0.3,1.9c-0.2,1.4,16.6-5,30.6-14.4c-8.8,12.1-29.4,19-28.6,19
			c24.8-0.4,45.9-16.4,44-37.1C661.9,616.8,644.4,606.6,640.2,632.4z"/>
		<path class="st0" d="M647.2,614c2.9-2,6.5-3.1,10.2-3.7c4.1-10.3-4.6-10.6-0.3-31.4c-18.7,5.3-30.7,29.3-18.4,50.4
			c0.8-4.2,1.9-8.3,4.5-11.5c-3.1-12.6,3.9-25.1,4.5-25.7C648.3,591.6,644.1,602.6,647.2,614z"/>
		<path class="st0" d="M671.5,593c0,0.6,0,1.2,0.1,1.8c0.1,1.4,15-7.8,26.7-19.4c-6.3,13.2-24.7,23.6-24,23.4
			c23.7-5,41.1-24.1,35.4-43.6C689.4,574.1,670.7,567.5,671.5,593z"/>
		<path class="st0" d="M674.8,574.1c2.4-2.5,5.7-4.1,9.1-5.4c2.1-10.6-6.4-9.3-6.1-30c-17,8.5-24,33.7-8.4,51.7
			c0-4.1,0.4-8.3,2.2-11.8c-5.3-11.5-0.9-24.8-0.4-25.5C671.7,552.4,669.8,563.8,674.8,574.1z"/>
		<path class="st0" d="M696,549.9c0.1,0.6,0.3,1.1,0.4,1.7c0.3,1.3,13-10.3,22-23.5c-3.6,13.8-19.4,27.2-18.7,26.9
			c21.8-9.1,34.9-30.7,25.9-48.3C709.7,528.5,690.6,525.6,696,549.9z"/>
		<path class="st0" d="M695.7,531.2c1.8-2.8,4.7-5,7.7-6.9c0-10.6-7.8-7.7-11.3-27.7c-14.7,11.3-16.8,36.7,1.5,51.1
			c-0.8-3.9-1.2-8-0.1-11.7c-7.2-10.1-5.4-23.6-5-24.4C688.8,511,689,522.2,695.7,531.2z"/>
		<path class="st0" d="M714.4,506.9c19.2-12.7,27.8-35.8,16-51.1c-11.4,23.8-30.2,24.5-20.5,46.9c0.2,0.5,0.5,1.1,0.7,1.6
			c0.6,1.2,10.5-12.2,16.8-26.6C726.5,491.6,713.8,507.3,714.4,506.9z"/>
		<path class="st0" d="M706.1,484.9c1.3-3.1,3.6-5.7,6.1-8c-1.9-10.1-8.9-6-15.9-24.4c-12.1,13.5-9.4,38.3,10.8,48.7
			c-1.5-3.6-2.6-7.5-2.2-11.2c-8.7-8.3-9.5-21.6-9.3-22.4C695.7,466.7,698,477.4,706.1,484.9z"/>
		<path class="st0" d="M715.4,456.2c0.3,0.5,0.6,0.9,1,1.4c0.8,1,7.9-13.6,11.2-28.5c1.7,13.4-7.6,30.8-7.1,30.3
			c16-15.7,20.1-39.4,5.9-51.8C720,432.5,702.1,436.6,715.4,456.2z"/>
		<path class="st0" d="M708.6,439.8c0.6-3.1,2.4-6.1,4.4-8.8c-3.7-9.4-9.6-4.1-19.7-20.5c-9.1,15.2-2,38.4,19.2,44.6
			c-2.1-3.2-3.9-6.7-4.2-10.3c-9.9-6.4-13-19-13-19.8C695.3,424.3,699.5,434.1,708.6,439.8z"/>
		<path class="st0" d="M710.6,407.8c0.4,0.4,0.8,0.8,1.2,1.2c0.9,0.9,5-14.5,5.5-29.3c4.1,12.6-1.6,30.9-1.2,30.3
			c12.5-18,12-41.3-3.8-50.7C710.6,384.2,694.2,391.5,710.6,407.8z"/>
		<path class="st0" d="M701,393.3c0-3.1,1.2-6.2,2.6-9.2c-5.2-8.3-10-2.1-22.6-16c-5.9,16.2,5.1,37.1,26.6,39.2
			c-2.6-2.7-4.9-5.7-5.9-9.1c-10.6-4.3-15.9-15.8-16.1-16.5C685.5,381,691.3,389.6,701,393.3z"/>
		<path class="st0" d="M699.1,363c0.4,0.3,0.9,0.6,1.4,0.9c1,0.7,2.2-14.7-0.1-29c6.2,11.2,4.1,29.8,4.4,29.2
			c8.6-19.4,3.9-41.7-12.9-47.7C694.8,340.5,680.5,350.4,699.1,363z"/>
		<path class="st0" d="M696.1,363.1c-3-2.1-5.7-4.5-7.3-7.6c-10.9-2.2-18.1-12.1-18.4-12.9c-0.2-0.7,6.9,6.5,16.8,8.3
			c-0.5-3,0-6.2,0.8-9.3c-6.5-7-9.9-0.2-24.6-11.1C660.8,347.1,675.2,365.1,696.1,363.1z"/>
		<path class="st0" d="M679.5,323.9c0.5,0.2,1,0.4,1.5,0.6c1.1,0.4-0.6-14.5-5.4-27.7c8,9.6,9.4,27.7,9.5,27.1
			c4.7-20.2-3.9-40.6-21.1-43.2C671.3,303.2,659.4,315.3,679.5,323.9z"/>
		<path class="st0" d="M639.6,299.4c0.5,16.3,17.5,30.8,37.1,25.2c-3.2-1.5-6.3-3.3-8.4-6c-10.8-0.1-19.5-8.3-19.9-8.9
			s7.7,4.9,17.6,4.8c-1.1-2.8-1.2-5.9-0.9-9C657.6,300.1,655.6,307.1,639.6,299.4z"/>
		<path class="st0" d="M652.5,288.9c0.5,0.1,1,0.2,1.5,0.3c1.1,0.2-3.2-13.7-10.2-25.5c9.4,7.7,14,24.7,14,24.1
			c0.8-20.1-11.1-38-28-37.4C640.8,270.6,631.7,284.3,652.5,288.9z"/>
		<path class="st0" d="M649.9,290c-3.3-0.8-6.6-2-9.1-4.2c-10.4,1.9-20.2-4.3-20.6-4.9c-0.5-0.5,8.3,3.3,17.7,1.4
			c-1.5-2.4-2.2-5.4-2.5-8.4c-8.2-3.8-8.8,3.3-25.5-1.2C613.3,288.2,632.2,299,649.9,290z"/>
		<path class="st0" d="M621.9,259.4c0.5,0,1,0,1.5,0c1.1,0-5.6-12.5-14.4-22.4c10.3,5.7,17.9,21,17.8,20.4
			c-2.9-19.3-17.5-34.2-33.5-30.6C607.5,244.1,601.3,258.8,621.9,259.4z"/>
		<path class="st0" d="M619.7,261c-3.3-0.2-6.7-0.7-9.4-2.3c-9.5,3.7-20-0.5-20.6-0.9c-0.5-0.4,8.5,1.6,17.1-1.9
			c-1.9-2.1-3.1-4.8-3.9-7.6c-8.5-2.2-7.8,4.7-24.5,3.5C584.5,266,604.4,272.8,619.7,261z"/>
		<path class="st0" d="M585.6,237c0.5-0.1,0.9-0.2,1.4-0.3c1.1-0.2-7.6-10.9-17.8-18.8c10.9,3.5,20.9,16.8,20.7,16.2
			c-6.3-17.9-23-29.4-37.5-23C569.1,225,565.9,240.2,585.6,237z"/>
		<path class="st0" d="M583.8,238.9c-3.2,0.4-6.5,0.6-9.4-0.5c-8.4,5.3-19.2,3.2-19.8,2.9s8.4,0,16-4.9c-2.2-1.6-3.8-4-5.1-6.5
			c-8.5-0.5-6.6,5.9-22.7,7.8C551.1,250,571.4,252.9,583.8,238.9z"/>
	</g>
	<g>
		<path class="st0" d="M470.1,178.7h35v4.2c-3.9,0.2-7.6,2.4-11.1,6.7c-3.4,4.3-6.9,10.7-10.2,19.2l-31.4,79h-4.2l-38.7-92.2
			c-2.2-5.6-4.1-9.1-5.6-10.4c-1.5-1.3-4.5-2.1-9-2.3v-4.2h45.7v4.2h-1.3c-3.4,0-6,0.6-7.8,1.8s-2.7,2.9-2.7,5
			c0-0.2,0.2,0.7,0.5,2.6c0.3,1.9,0.7,3.3,1.1,4.3l27.6,66.1l19.9-49.9c2.8-6.9,4.3-12.6,4.3-16.9c0-4.1-1.1-7.3-3.2-9.5
			c-2.1-2.3-5-3.4-8.8-3.4L470.1,178.7L470.1,178.7z M411.8,194.6l37.3,89.2c1.5-2.7,2.2-4.7,2.2-5.8c0-1.2-0.7-3.4-2.2-6.5
			l-31.8-76.2c-1.4-3.3-2.6-5.8-3.6-7.5s-2.3-3-3.9-3.8s-3.8-1.4-6.6-1.6c1.9,0.7,3.4,1.9,4.5,3.6
			C408.8,187.7,410.2,190.6,411.8,194.6z M492.8,182.9h-15c4,2.3,6.2,6.3,6.5,12C486.6,189.5,489.4,185.5,492.8,182.9z"/>
	</g>
	<g>
		<g>
			<path class="st8" d="M142.8,574.7l-29.7,11.9l-1.6-4l29.7-11.9L142.8,574.7z"/>
			<path class="st8" d="M148.4,587.8l-15.9,26.5v0.1l23.3-11.4l1.8,3.6l-28.8,14l-2-4.2l15.8-26.3V590l-23.1,11.3l-1.8-3.6l28.8-14
				L148.4,587.8z"/>
			<path class="st8" d="M147.9,652.1l20.1-27.3l2.6,3.8l-17.8,23.2l0.1,0.1l28.1-8l2.5,3.7l-32.9,8.6L147.9,652.1z"/>
			<path class="st8" d="M201.2,669.3l-2.8,2.3l-11.3-13.8l-7.9,6.5l10.5,12.9l-2.8,2.3l-10.5-12.9l-8.6,7l11.4,13.9l-2.8,2.3
				l-14.1-17.2l24.7-20.3L201.2,669.3z"/>
			<path class="st8" d="M217.1,685.8c2.1,2.2,3.3,4.4,3.4,6.7c0.2,2.3-0.7,4.3-2.5,6.2c-1.4,1.4-2.9,2.3-4.6,2.7
				c-1.7,0.4-3.4,0.1-5.1-0.9l-0.1,0.1c0.5,0.8,0.8,1.5,1,2.2c0.1,0.7,0.1,1.4-0.1,2c-0.2,0.7-0.5,1.3-0.8,1.9
				c-0.4,0.6-0.8,1.2-1.3,1.8s-1,1.2-1.6,1.8s-1.1,1.2-1.5,1.8c-0.5,0.6-0.9,1.3-1.2,1.9c-0.3,0.7-0.5,1.3-0.6,2l-3.3-3.4
				c0-0.4,0.2-0.9,0.5-1.4s0.7-1,1.2-1.5s1-1.1,1.5-1.7c0.6-0.6,1-1.2,1.5-1.9c0.5-0.6,0.9-1.3,1.3-1.9c0.4-0.6,0.6-1.3,0.7-1.9
				c0.1-0.6,0-1.3-0.2-2s-0.7-1.4-1.4-2.1l-7.3-7.4l-9.7,9.6l-3-3l22.7-22.6L217.1,685.8z M207.5,696.7c0.7,0.5,1.5,0.9,2.3,1.1
				c0.8,0.2,1.6,0.1,2.4-0.1c0.8-0.2,1.6-0.8,2.4-1.6c1.1-1.1,1.8-2.4,1.9-3.7c0.1-1.4-0.6-2.7-2-4.2l-7.5-7.5l-7.9,7.9l6.3,6.3
				C206,695.6,206.7,696.2,207.5,696.7z"/>
			<path class="st8" d="M233.7,701.1l-21,24.1l-3.2-2.8l21-24.1L233.7,701.1z"/>
			<path class="st8" d="M236.2,708.2l2.2-2.8l20.3,15.6l-2.2,2.8l-8.5-6.5l-17.3,22.5l-3.4-2.6l17.3-22.6L236.2,708.2z"/>
			<path class="st8" d="M271.5,729.3l-7,33.6l-3.9-2.6l2.3-10l-11.3-7.4l-8.3,6.1l-3.6-2.4l27.9-20L271.5,729.3z M263.8,746.7
				l3.7-15.4h-0.1l-12.7,9.6L263.8,746.7z"/>
			<path class="st8" d="M278.8,738.3l1.7-3.1l22.5,12.2l-1.7,3.1l-9.4-5.1l-13.6,25l-3.7-2l13.6-25L278.8,738.3z"/>
			<path class="st8" d="M328.8,758.8l-1.4,3.3L311,755l-4.1,9.3l15.2,6.6l-1.4,3.3l-15.2-6.6l-4.4,10.2l16.5,7.2l-1.4,3.3l-20.4-8.9
				l12.8-29.3L328.8,758.8z"/>
			<path class="st8" d="M363.8,770.1c3.1,0.9,5.2,2.3,6.4,4.4c1.2,2,1.3,4.5,0.5,7.4s-2.2,4.9-4.3,6.1c-2,1.2-4.6,1.3-7.7,0.4
				l-9.4-2.6l-3.5,12.6l-4.1-1.1l8.6-30.8L363.8,770.1z M358.3,784.5c2.3,0.7,4.2,0.7,5.5,0s2.3-1.9,2.8-3.8
				c0.5-1.8,0.4-3.4-0.4-4.7s-2.4-2.2-4.7-2.9l-8-2.2l-3.1,11.3L358.3,784.5z"/>
			<path class="st8" d="M395.7,777c3,0.5,5.2,1.7,6.7,3.4c1.4,1.8,1.9,3.9,1.5,6.5c-0.3,1.9-1.1,3.5-2.2,4.8s-2.7,2-4.7,2.2v0.1
				c0.9,0.3,1.6,0.8,2.1,1.3s0.9,1.1,1.1,1.7c0.2,0.6,0.4,1.3,0.4,2.1c0,0.7,0,1.5,0,2.3c-0.1,0.8-0.2,1.6-0.3,2.4
				c-0.1,0.8-0.2,1.6-0.2,2.4s0,1.5,0.1,2.3c0.1,0.7,0.3,1.4,0.7,2l-4.7-0.8c-0.2-0.4-0.4-0.9-0.4-1.4c0-0.6,0-1.2,0.1-1.9
				s0.2-1.4,0.3-2.2c0.1-0.8,0.2-1.6,0.1-2.4c0-0.8,0-1.5-0.1-2.3c-0.1-0.7-0.2-1.4-0.5-2s-0.7-1.1-1.3-1.5
				c-0.6-0.4-1.4-0.7-2.4-0.9l-10.2-1.8l-2.4,13.5l-4.2-0.7l5.5-31.5L395.7,777z M394.1,791.5c0.9,0,1.7-0.1,2.5-0.5
				c0.7-0.3,1.4-0.8,1.9-1.4s0.9-1.6,1.1-2.7c0.3-1.6,0.1-3-0.6-4.1c-0.7-1.2-2-1.9-4-2.3l-10.4-1.8l-1.9,11l8.7,1.5
				C392.3,791.4,393.2,791.5,394.1,791.5z"/>
			<path class="st8" d="M412.4,789.4c0.8-2,1.9-3.7,3.2-5.1c1.4-1.5,3.1-2.6,5-3.4c2-0.8,4.2-1.1,6.8-0.9c2.5,0.2,4.7,0.8,6.6,1.8
				c1.8,1.1,3.4,2.4,4.5,4c1.2,1.6,2,3.5,2.5,5.5c0.5,2.1,0.7,4.2,0.5,6.3c-0.1,2.2-0.6,4.2-1.4,6.2s-1.9,3.7-3.2,5.1
				c-1.4,1.5-3.1,2.6-5,3.4c-2,0.8-4.2,1.1-6.8,0.9c-2.5-0.2-4.7-0.8-6.6-1.8c-1.8-1-3.4-2.4-4.5-4c-1.2-1.6-2-3.5-2.5-5.5
				c-0.5-2.1-0.7-4.2-0.5-6.3C411.2,793.4,411.6,791.3,412.4,789.4z M415.6,800.7c0.3,1.6,0.9,3,1.7,4.4c0.8,1.3,1.9,2.4,3.2,3.2
				s3,1.3,4.9,1.5c1.9,0.1,3.6-0.1,5.1-0.8s2.7-1.6,3.6-2.8c1-1.2,1.7-2.6,2.3-4.1c0.5-1.5,0.8-3.1,0.9-4.7c0.1-1.6,0-3.2-0.3-4.8
				s-0.9-3-1.7-4.4c-0.8-1.3-1.9-2.4-3.2-3.3c-1.4-0.9-3-1.3-4.9-1.5c-1.9-0.1-3.6,0.1-5.1,0.8s-2.7,1.6-3.6,2.8
				c-1,1.2-1.7,2.6-2.3,4.1c-0.5,1.5-0.8,3.1-0.9,4.7C415.1,797.5,415.3,799.1,415.6,800.7z"/>
			<path class="st8" d="M469.8,780.9l19,24.5h0.1l-2.2-25.9l4-0.3l2.7,31.9l-4.6,0.4L470,787.3h-0.1l2.1,25.6l-4,0.3l-2.7-31.9
				L469.8,780.9z"/>
			<path class="st8" d="M501.3,787.6c0.2-2.1,0.9-4,1.8-5.8c1-1.8,2.3-3.3,4-4.6s3.8-2.2,6.3-2.6c2.5-0.5,4.8-0.5,6.8,0.1
				c2.1,0.5,3.9,1.5,5.4,2.7s2.8,2.9,3.9,4.7c1,1.9,1.7,3.9,2.1,6c0.4,2.1,0.5,4.3,0.3,6.4c-0.2,2.1-0.9,4-1.8,5.8
				c-1,1.8-2.3,3.3-4,4.5c-1.7,1.3-3.8,2.1-6.3,2.6s-4.8,0.5-6.8-0.1c-2.1-0.5-3.9-1.4-5.4-2.7c-1.6-1.3-2.8-2.9-3.9-4.7
				c-1-1.9-1.7-3.9-2.1-6C501.1,791.8,501,789.7,501.3,787.6z M507.2,797.7c0.7,1.5,1.6,2.7,2.7,3.8s2.4,1.8,4,2.3
				c1.5,0.5,3.2,0.5,5.1,0.2c1.9-0.4,3.5-1.1,4.7-2.1s2.2-2.2,2.8-3.6c0.6-1.4,1-2.9,1.1-4.5s0-3.2-0.3-4.8s-0.8-3.1-1.5-4.6
				s-1.6-2.7-2.7-3.8c-1.1-1.1-2.4-1.8-4-2.3c-1.5-0.5-3.2-0.5-5.1-0.2c-1.9,0.4-3.5,1.1-4.7,2.1s-2.2,2.2-2.8,3.6
				c-0.6,1.4-1,2.9-1.1,4.5s0,3.2,0.3,4.8C506,794.7,506.5,796.3,507.2,797.7z"/>
			<path class="st8" d="M547.3,766.9c0.7-0.2,1.4-0.4,2.1-0.6c0.8-0.2,1.5-0.4,2.3-0.6c0.8-0.2,1.5-0.3,2.2-0.3
				c0.7-0.1,1.3,0,1.8,0.1c1.2,0.3,2.3,0.9,3.3,1.7s1.8,2,2.2,3.6c0.5,1.6,0.5,3.2,0.1,4.6s-1.3,2.6-2.6,3.7v0.1
				c2-0.2,3.7,0.2,5.1,1.2c1.4,1,2.4,2.5,3,4.3c0.3,1.1,0.5,2.3,0.4,3.4c-0.1,1.2-0.4,2.3-0.9,3.4s-1.3,2-2.3,2.9s-2.3,1.5-3.8,2
				l-14.8,4.5l-9.4-30.6L547.3,766.9z M552.4,779.7c2.3-0.7,3.9-1.6,4.6-2.8c0.8-1.1,0.9-2.5,0.4-4.1c-0.3-1.1-0.8-1.9-1.3-2.4
				s-1.2-0.9-1.9-1c-0.7-0.2-1.5-0.2-2.3,0c-0.8,0.1-1.7,0.3-2.6,0.6l-8.1,2.5l3,9.7L552.4,779.7z M558.8,793.1
				c1.8-0.6,3.1-1.5,3.8-2.8s0.8-2.8,0.3-4.5c-0.3-1-0.7-1.8-1.3-2.3s-1.2-0.9-2-1.1c-0.7-0.2-1.5-0.3-2.4-0.2
				c-0.8,0.1-1.7,0.3-2.6,0.5l-9.3,2.9l3.3,10.6L558.8,793.1z"/>
			<path class="st8" d="M571.9,758.3l11.6,29.8l-4,1.5l-11.6-29.8L571.9,758.3z"/>
			<path class="st8" d="M597.2,751.9c-1.7-0.3-3.6,0-5.6,0.9c-0.8,0.4-1.6,0.8-2.3,1.4c-0.7,0.5-1.3,1.1-1.7,1.8s-0.7,1.4-0.7,2.2
				c-0.1,0.8,0.1,1.7,0.6,2.6c0.4,0.9,1,1.5,1.8,1.8s1.7,0.4,2.7,0.4c1-0.1,2.2-0.2,3.4-0.5s2.5-0.6,3.7-0.8
				c1.3-0.3,2.6-0.5,3.8-0.6c1.3-0.2,2.5-0.1,3.7,0.1c1.2,0.2,2.2,0.7,3.2,1.4s1.8,1.8,2.5,3.2c0.7,1.5,1,3,0.8,4.4
				s-0.6,2.7-1.4,3.9c-0.8,1.2-1.7,2.3-2.9,3.2s-2.5,1.7-3.8,2.3c-1.6,0.8-3.3,1.3-4.9,1.6c-1.6,0.3-3.2,0.3-4.7-0.1
				c-1.5-0.3-2.8-1-4.1-1.9c-1.2-1-2.3-2.4-3.1-4.1l3.7-1.7c0.6,1.2,1.3,2.2,2.2,2.8c0.9,0.7,1.8,1.1,2.9,1.3c1,0.2,2.1,0.2,3.3,0
				s2.3-0.6,3.4-1.1c0.9-0.4,1.7-0.9,2.5-1.5s1.5-1.2,2-1.9s0.8-1.5,1-2.4c0.1-0.9-0.1-1.8-0.6-2.9c-0.5-1-1.1-1.7-1.9-2.1
				c-0.8-0.4-1.8-0.6-2.8-0.5c-1.1,0-2.2,0.2-3.4,0.4c-1.2,0.3-2.5,0.6-3.7,0.8c-1.3,0.3-2.5,0.5-3.8,0.7s-2.5,0.2-3.6,0.1
				c-1.1-0.1-2.2-0.5-3.1-1.2c-0.9-0.6-1.7-1.6-2.3-2.9c-0.7-1.5-1-2.9-0.9-4.2s0.5-2.6,1.1-3.8c0.7-1.2,1.5-2.2,2.6-3.1
				c1.1-0.9,2.3-1.7,3.6-2.3c1.5-0.7,3-1.2,4.4-1.4s2.8-0.2,4.1,0.1s2.5,0.9,3.6,1.8c1.1,0.9,2,2.1,2.8,3.7l-3.6,1.7
				C600.4,753.4,598.9,752.3,597.2,751.9z"/>
			<path class="st8" d="M631.4,727.4c4.1-2.7,8-3.8,11.6-3.1c3.6,0.6,6.8,3.1,9.7,7.4c1.5,2.2,2.5,4.4,3.2,6.5
				c0.6,2.1,0.8,4,0.6,5.9c-0.3,1.9-1,3.7-2.2,5.4s-2.9,3.3-5.1,4.7l-9.2,6.1l-17.6-26.7L631.4,727.4z M647.4,750.9
				c0.4-0.3,0.9-0.6,1.4-1.1c0.6-0.5,1.1-1,1.6-1.7s1-1.5,1.3-2.4c0.4-0.9,0.6-1.9,0.6-3s-0.2-2.4-0.6-3.8c-0.4-1.4-1.2-2.9-2.3-4.5
				s-2.2-2.9-3.3-4s-2.4-1.8-3.7-2.2s-2.7-0.5-4.1-0.2c-1.4,0.3-3,1-4.6,2l-6,4l13.7,20.7L647.4,750.9z"/>
			<path class="st8" d="M656.1,722.3c-0.8-2-1.2-4-1.2-6s0.4-4,1.3-5.9c0.9-1.9,2.3-3.7,4.3-5.3s4-2.7,6-3.2
				c2.1-0.5,4.1-0.6,6.1-0.2c2,0.4,3.9,1.1,5.6,2.3c1.8,1.1,3.4,2.6,4.8,4.2s2.5,3.5,3.3,5.5s1.2,4,1.2,6s-0.5,4-1.3,5.9
				c-0.9,1.9-2.3,3.7-4.3,5.3s-4,2.7-6,3.2c-2.1,0.5-4.1,0.6-6.1,0.2c-2-0.4-3.9-1.1-5.6-2.3s-3.4-2.6-4.8-4.2
				C657.9,726,656.8,724.2,656.1,722.3z M666.1,728.3c1.3,0.9,2.7,1.6,4.2,2s3,0.4,4.6,0.1c1.6-0.3,3.1-1.1,4.6-2.3s2.5-2.6,3.1-4.1
				s0.8-3,0.7-4.5s-0.5-3-1.2-4.5s-1.5-2.8-2.6-4.1c-1-1.2-2.2-2.3-3.5-3.3c-1.3-0.9-2.7-1.6-4.2-2s-3-0.4-4.6-0.1
				c-1.6,0.3-3.1,1.1-4.6,2.3s-2.5,2.6-3.1,4.1s-0.8,3-0.7,4.5s0.5,3,1.2,4.5s1.5,2.8,2.6,4.1C663.6,726.3,664.8,727.3,666.1,728.3z
				"/>
			<path class="st8" d="M682.7,686.2l26.4,11.3l-12.4-25.9l4-4.2l23.1,22.1l-2.8,2.9L701.8,674l-0.1,0.1l12.3,25.6l-2.5,2.6
				l-26.2-11.2l-0.1,0.1l19.3,18.4l-2.8,2.9l-23.1-22.1L682.7,686.2z"/>
			<path class="st8" d="M709.4,656.3l24.9,20.1l-2.7,3.3l-24.9-20.1L709.4,656.3z"/>
			<path class="st8" d="M718.1,645.1L749,646l0.1-0.1l-21.3-14.8l2.3-3.3l26.3,18.2l-2.7,3.8l-30.6-0.9L723,649l21.1,14.6l-2.3,3.3
				l-26.3-18.2L718.1,645.1z"/>
			<path class="st8" d="M771.7,614.4c0.8,2.9,0.2,6.1-1.8,9.7c-2,3.6-4.4,6-7.2,7.1s-6.1,0.6-9.9-1.4l-17.9-9.8l2-3.7l17.9,9.8
				c2.5,1.4,4.8,1.7,6.8,1.1c2-0.6,3.7-2.2,5.1-4.7c1.3-2.4,1.6-4.6,1-6.5c-0.6-2-2.2-3.6-4.7-5l-17.9-9.8l2-3.7l17.9,9.8
				C768.8,609,771,611.5,771.7,614.4z"/>
			<path class="st8" d="M761.5,575.6c-1.5,0.9-2.7,2.4-3.5,4.4c-0.3,0.8-0.6,1.7-0.8,2.5s-0.2,1.7-0.1,2.5c0.1,0.8,0.4,1.5,0.9,2.1
				s1.2,1.2,2.2,1.6c0.9,0.4,1.8,0.4,2.5,0.1c0.8-0.3,1.6-0.8,2.3-1.6c0.7-0.7,1.5-1.6,2.2-2.7c0.7-1,1.4-2.1,2.2-3.1
				c0.8-1.1,1.6-2.1,2.4-3c0.8-1,1.8-1.8,2.8-2.4c1-0.6,2.1-1,3.3-1.1s2.5,0.1,4,0.7c1.6,0.7,2.8,1.6,3.6,2.8s1.3,2.5,1.6,3.9
				c0.2,1.4,0.2,2.8,0,4.3c-0.3,1.5-0.7,2.9-1.2,4.3c-0.7,1.7-1.6,3.1-2.6,4.4c-1,1.3-2.2,2.3-3.5,3.1s-2.8,1.2-4.3,1.3
				c-1.6,0.1-3.3-0.2-5.1-1l1.6-3.7c1.2,0.5,2.4,0.7,3.5,0.6c1.1-0.1,2.1-0.4,3-1s1.7-1.3,2.4-2.2s1.3-1.9,1.8-3
				c0.4-0.9,0.7-1.8,0.9-2.8s0.3-1.9,0.2-2.8c-0.1-0.9-0.4-1.7-0.9-2.4s-1.3-1.3-2.4-1.8c-1-0.4-2-0.5-2.8-0.2
				c-0.9,0.3-1.7,0.8-2.5,1.5s-1.5,1.6-2.3,2.6c-0.7,1-1.5,2.1-2.2,3.1s-1.5,2.1-2.4,3.1c-0.8,1-1.7,1.8-2.6,2.5
				c-0.9,0.7-2,1.1-3.1,1.2c-1.1,0.2-2.4,0-3.7-0.6c-1.5-0.6-2.6-1.5-3.5-2.5c-0.8-1.1-1.4-2.2-1.7-3.5s-0.3-2.7-0.1-4.1
				c0.2-1.4,0.6-2.8,1.1-4.2c0.6-1.5,1.4-2.8,2.3-4c0.9-1.1,1.9-2,3.1-2.7c1.2-0.7,2.5-1,3.9-1.1s2.9,0.2,4.6,0.8l-1.6,3.7
				C764.9,574.6,763,574.7,761.5,575.6z"/>
		</g>
	</g>
	<g>
		<g>
			<path class="st8" d="M94.3,399.1c-1.3,1.5-2.1,3.3-2.4,5.6c-0.2,1.9-0.1,3.6,0.5,5c0.5,1.4,1.4,2.7,2.5,3.7s2.4,1.8,3.9,2.4
				s3.1,1,4.7,1.2c1.8,0.2,3.5,0.2,5.2,0s3.2-0.7,4.5-1.4c1.3-0.7,2.4-1.7,3.3-3s1.4-2.9,1.7-4.8c0.2-1.4,0.1-2.7-0.2-3.8
				c-0.3-1.1-0.8-2.2-1.6-3c-0.7-0.9-1.6-1.6-2.7-2.2s-2.3-1-3.6-1.3l0.5-4.2c4,0.9,6.9,2.7,8.8,5.3c1.9,2.6,2.7,6,2.2,10
				c-0.3,2.5-1,4.6-2.1,6.3c-1.1,1.7-2.4,3.1-4.1,4.2c-1.6,1-3.5,1.7-5.6,2.1s-4.3,0.4-6.6,0.1c-2.3-0.3-4.4-0.9-6.4-1.8
				s-3.6-2.1-5-3.5s-2.4-3.2-3-5.2s-0.8-4.2-0.5-6.6c0.2-1.7,0.6-3.2,1.2-4.6s1.4-2.7,2.4-3.7c1-1.1,2.2-1.9,3.6-2.5s2.9-0.9,4.7-1
				l-0.5,4.2C97.4,396.7,95.6,397.6,94.3,399.1z"/>
			<path class="st8" d="M97,361.1l3.5,0.8l-3.8,17.4l9.9,2.2l3.5-16.3l3.5,0.8l-3.5,16.3l10.8,2.3l3.8-17.6l3.5,0.8l-4.7,21.7
				l-31.3-6.8L97,361.1z"/>
			<path class="st8" d="M100.4,348.8l29.8-8.3v-0.1l-24.8-7.8l1.2-3.8l30.5,9.6l-1.4,4.4l-29.5,8.3v0.1l24.5,7.7l-1.2,3.8L99,353.1
				L100.4,348.8z"/>
			<path class="st8" d="M112.2,324.1l-3.3-1.4l9.8-23.6l3.3,1.4l-4.1,9.9l26.3,10.9l-1.6,3.9l-26.3-10.9L112.2,324.1z"/>
			<path class="st8" d="M128.4,279.8c1.4-2.7,3.2-4.5,5.3-5.3s4.3-0.7,6.6,0.5c1.7,0.9,3,2.1,3.9,3.5c0.9,1.5,1.1,3.2,0.7,5.1h0.1
				c0.6-0.7,1.2-1.3,1.8-1.6c0.6-0.3,1.3-0.5,2-0.5s1.4,0,2.1,0.2c0.7,0.2,1.4,0.4,2.2,0.7c0.7,0.3,1.4,0.6,2.2,1
				c0.7,0.3,1.5,0.6,2.2,0.9s1.5,0.4,2.2,0.6c0.7,0.1,1.4,0.1,2.1,0l-2.2,4.2c-0.4,0.1-0.9,0.1-1.5-0.1s-1.1-0.4-1.8-0.7
				c-0.6-0.3-1.3-0.6-2.1-1c-0.7-0.3-1.5-0.6-2.2-0.9s-1.5-0.5-2.2-0.6c-0.7-0.2-1.4-0.2-2-0.1s-1.2,0.4-1.8,0.8s-1.1,1.1-1.6,2
				l-4.8,9.2l12.1,6.3l-2,3.8l-28.4-14.7L128.4,279.8z M141.7,285.7c0.3-0.9,0.4-1.7,0.3-2.5c-0.1-0.8-0.3-1.5-0.8-2.2
				s-1.2-1.3-2.2-1.8c-1.4-0.7-2.8-1-4.1-0.6c-1.3,0.3-2.4,1.4-3.4,3.2l-4.9,9.4l9.9,5.1l4.1-7.9C141,287.4,141.4,286.6,141.7,285.7
				z"/>
			<path class="st8" d="M145.1,269.3c-1.3-1.6-2.3-3.4-2.9-5.3c-0.6-1.9-0.8-3.9-0.5-6s1.1-4.2,2.5-6.4c1.4-2.1,3-3.7,4.8-4.8
				s3.7-1.8,5.7-2s4-0.1,6.1,0.5s4,1.4,5.8,2.6s3.4,2.6,4.8,4.2c1.3,1.6,2.3,3.4,2.9,5.3c0.6,1.9,0.8,3.9,0.5,6s-1.1,4.2-2.5,6.3
				c-1.4,2.1-3,3.7-4.8,4.9c-1.8,1.1-3.7,1.8-5.7,2s-4,0.1-6.1-0.5c-2-0.6-4-1.4-5.8-2.6C148,272.4,146.4,271,145.1,269.3z
				 M156.5,272.1c1.5,0.5,3.1,0.7,4.6,0.7c1.5-0.1,3-0.5,4.4-1.2c1.4-0.8,2.6-2,3.7-3.6s1.7-3.2,1.8-4.8c0.1-1.6-0.1-3.1-0.7-4.5
				c-0.6-1.4-1.4-2.8-2.5-4s-2.3-2.2-3.7-3.1c-1.4-0.9-2.8-1.6-4.3-2.1s-3.1-0.7-4.6-0.7c-1.5,0.1-3,0.5-4.4,1.2
				c-1.4,0.8-2.6,2-3.7,3.6c-1.1,1.6-1.7,3.2-1.8,4.8c-0.1,1.6,0.1,3.1,0.7,4.5c0.6,1.4,1.4,2.8,2.5,4s2.3,2.2,3.7,3.1
				C153.5,270.9,154.9,271.6,156.5,272.1z"/>
			<path class="st8" d="M196.7,235.7l-31.6-12.3l3-3.5l27,11.1l0.1-0.1l-15-25.1l2.9-3.4l16.9,29.5L196.7,235.7z"/>
			<path class="st8" d="M203.1,182.5l2.5,2.6l-12.7,12.5l7.1,7.2l11.8-11.7l2.5,2.6l-11.8,11.7l7.8,7.9l12.8-12.6l2.5,2.6
				l-15.8,15.6l-22.5-22.8L203.1,182.5z"/>
			<path class="st8" d="M220.9,167.4c2.4-1.9,4.7-2.9,6.9-2.8c2.3,0.1,4.2,1.1,5.9,3.1c1.2,1.5,2,3.1,2.2,4.8c0.3,1.7-0.2,3.4-1.4,5
				l0.1,0.1c0.8-0.5,1.6-0.7,2.3-0.8c0.7,0,1.4,0,2,0.3c0.6,0.2,1.2,0.6,1.8,1s1.2,0.9,1.7,1.5s1.1,1.1,1.6,1.7
				c0.5,0.6,1.1,1.2,1.7,1.7c0.6,0.5,1.2,1,1.8,1.4s1.3,0.7,2,0.8l-3.7,3c-0.4-0.1-0.9-0.3-1.3-0.7c-0.4-0.4-0.9-0.8-1.4-1.3
				s-1-1.1-1.5-1.7c-0.5-0.6-1.1-1.2-1.7-1.7c-0.6-0.5-1.2-1-1.8-1.4s-1.2-0.7-1.8-0.9s-1.3-0.2-2,0s-1.4,0.6-2.2,1.2l-8,6.6
				l8.7,10.5l-3.3,2.7L209.3,177L220.9,167.4z M230.8,178c0.6-0.7,1-1.4,1.3-2.2c0.2-0.8,0.3-1.6,0.1-2.4c-0.2-0.8-0.6-1.7-1.3-2.6
				c-1-1.2-2.2-2-3.5-2.2s-2.8,0.3-4.3,1.6l-8.2,6.7l7.1,8.6l6.8-5.7C229.6,179.4,230.3,178.7,230.8,178z"/>
			<path class="st8" d="M239.1,153.6l18.7,26l-3.5,2.5l-18.7-26L239.1,153.6z"/>
			<path class="st8" d="M246.2,152.7l-1.9-3l21.6-13.7l1.9,3l-9,5.7l15.2,24l-3.6,2.3l-15.2-24L246.2,152.7z"/>
			<path class="st8" d="M279.6,128.5l26.2,22.2l-4.1,2.2l-7.7-6.8l-11.9,6.4l1.4,10.2l-3.8,2.1l-4.2-34.1L279.6,128.5z M291.2,143.6
				L279.4,133h-0.1l2.3,15.7L291.2,143.6z"/>
			<path class="st8" d="M312.7,117.7c-1.7-0.4-3.6-0.1-5.6,0.7c-0.8,0.4-1.6,0.8-2.3,1.3c-0.7,0.5-1.3,1.1-1.8,1.7
				c-0.5,0.7-0.7,1.4-0.8,2.2c-0.1,0.8,0.1,1.7,0.5,2.6s1,1.5,1.8,1.9c0.8,0.3,1.7,0.5,2.7,0.5s2.2-0.2,3.4-0.4
				c1.2-0.3,2.5-0.5,3.8-0.7s2.6-0.4,3.9-0.5s2.5,0,3.7,0.2s2.2,0.7,3.2,1.5c0.9,0.7,1.7,1.8,2.4,3.3c0.7,1.6,0.9,3.1,0.7,4.5
				c-0.2,1.4-0.7,2.7-1.5,3.9s-1.8,2.2-3,3.1c-1.2,0.9-2.5,1.6-3.9,2.2c-1.6,0.7-3.3,1.2-4.9,1.4s-3.2,0.2-4.7-0.2s-2.8-1.1-4-2.1
				s-2.2-2.4-3-4.2l3.7-1.6c0.5,1.2,1.2,2.2,2.1,2.9s1.8,1.1,2.8,1.4c1,0.2,2.1,0.3,3.3,0.1c1.2-0.2,2.3-0.5,3.4-1
				c0.9-0.4,1.7-0.8,2.5-1.4s1.5-1.2,2-1.9s0.9-1.5,1-2.4s0-1.8-0.5-2.9c-0.4-1-1.1-1.7-1.9-2.1c-0.8-0.4-1.7-0.6-2.8-0.6
				c-1.1,0-2.2,0.1-3.4,0.3c-1.2,0.2-2.5,0.5-3.8,0.7s-2.6,0.4-3.8,0.6c-1.3,0.1-2.5,0.1-3.6-0.1c-1.1-0.2-2.2-0.6-3.1-1.3
				s-1.7-1.7-2.2-3c-0.6-1.5-0.9-2.9-0.7-4.2c0.1-1.3,0.6-2.6,1.3-3.7c0.7-1.1,1.6-2.1,2.7-3s2.4-1.6,3.7-2.2c1.5-0.6,3-1.1,4.4-1.3
				c1.4-0.2,2.8-0.1,4.1,0.2c1.3,0.4,2.5,1,3.6,1.9s2,2.2,2.7,3.8l-3.7,1.6C315.8,119.3,314.4,118.1,312.7,117.7z"/>
			<path class="st8" d="M350.7,99.9c4.7-1.3,8.7-1.1,12,0.6c3.2,1.7,5.5,5,6.9,10c0.7,2.6,1.1,5,1.1,7.1c0,2.2-0.4,4.1-1.3,5.8
				c-0.8,1.7-2.1,3.2-3.7,4.4c-1.7,1.2-3.8,2.2-6.3,2.9l-10.6,3l-8.6-30.8L350.7,99.9z M358.7,127.2c0.5-0.1,1-0.3,1.7-0.6
				c0.7-0.3,1.4-0.6,2.1-1.1s1.4-1.1,2-1.8c0.6-0.7,1.1-1.6,1.5-2.7s0.5-2.3,0.6-3.8c0-1.4-0.2-3.1-0.8-5c-0.5-1.8-1.2-3.4-1.9-4.8
				c-0.8-1.4-1.7-2.4-2.8-3.2c-1.1-0.8-2.4-1.3-3.8-1.4c-1.4-0.2-3.1,0-5,0.5l-6.9,1.9l6.7,23.9L358.7,127.2z"/>
			<path class="st8" d="M395.2,90.1l0.7,3.5l-17.5,3.2l1.8,10l16.4-3l0.7,3.5l-16.4,3l2,10.9l17.7-3.3l0.7,3.5l-21.9,4l-5.8-31.5
				L395.2,90.1z"/>
			<path class="st8" d="M438,90.9c-1.7-1.1-3.6-1.5-5.9-1.4c-1.9,0.1-3.5,0.5-4.8,1.3s-2.4,1.8-3.2,3.1c-0.8,1.3-1.4,2.7-1.7,4.2
				c-0.3,1.6-0.5,3.2-0.4,4.9c0.1,1.8,0.4,3.5,0.9,5.1s1.2,3,2.2,4.2c0.9,1.2,2.1,2.1,3.5,2.7s3.1,0.9,5,0.8
				c1.4-0.1,2.6-0.4,3.7-0.9s2-1.2,2.7-2.1s1.3-1.9,1.7-3c0.4-1.2,0.6-2.4,0.6-3.7l4.3-0.2c-0.2,4.1-1.4,7.3-3.7,9.6
				s-5.4,3.6-9.5,3.9c-2.5,0.1-4.7-0.2-6.6-0.9c-1.9-0.8-3.5-1.8-4.8-3.3c-1.3-1.4-2.3-3.1-3-5.1s-1.1-4.2-1.3-6.5s0.1-4.5,0.6-6.6
				c0.6-2.1,1.4-3.9,2.6-5.5s2.7-2.9,4.6-3.8c1.8-1,4-1.5,6.4-1.7c1.7-0.1,3.3,0.1,4.8,0.4c1.5,0.4,2.9,1,4.1,1.8s2.2,1.8,3.1,3.1
				c0.8,1.3,1.4,2.7,1.8,4.4l-4.3,0.2C440.9,93.6,439.7,91.9,438,90.9z"/>
			<path class="st8" d="M452.6,95.6c0.7-2,1.8-3.7,3.1-5.2c1.4-1.5,3-2.7,5-3.5s4.2-1.2,6.7-1.1s4.7,0.7,6.6,1.7s3.4,2.3,4.6,3.9
				s2.1,3.4,2.6,5.5c0.5,2,0.8,4.2,0.7,6.3c-0.1,2.2-0.5,4.3-1.3,6.2c-0.7,2-1.8,3.7-3.1,5.2c-1.4,1.5-3,2.6-5,3.5
				c-2,0.8-4.2,1.2-6.7,1.1s-4.7-0.7-6.6-1.7s-3.4-2.3-4.6-3.9s-2.1-3.4-2.6-5.5c-0.5-2-0.8-4.2-0.7-6.3
				C451.4,99.7,451.9,97.6,452.6,95.6z M456,106.9c0.3,1.6,0.9,3,1.8,4.3c0.8,1.3,1.9,2.4,3.3,3.2c1.4,0.8,3,1.3,5,1.4
				c1.9,0.1,3.6-0.2,5.1-0.9c1.4-0.7,2.6-1.6,3.6-2.9c1-1.2,1.7-2.6,2.2-4.1s0.8-3.1,0.8-4.7c0.1-1.6-0.1-3.2-0.4-4.8
				c-0.3-1.6-0.9-3-1.8-4.3c-0.8-1.3-1.9-2.4-3.3-3.2c-1.4-0.8-3-1.3-5-1.4c-1.9-0.1-3.6,0.2-5.1,0.9s-2.6,1.6-3.6,2.9
				c-1,1.2-1.7,2.6-2.2,4.1s-0.8,3.1-0.9,4.7C455.5,103.7,455.6,105.3,456,106.9z"/>
			<path class="st8" d="M495.4,88.9l12.9,28.1h0.1l3.8-25.7l4,0.6l-4.7,31.7l-4.6-0.7L494,95.1h-0.1l-3.7,25.4l-4-0.6l4.7-31.7
				L495.4,88.9z"/>
			<path class="st8" d="M521.6,96.7l0.8-3.5l24.9,6l-0.8,3.5l-10.4-2.5l-6.6,27.6l-4.1-1l6.6-27.6L521.6,96.7z"/>
			<path class="st8" d="M567.9,105.7c2.9,1,4.9,2.4,6.1,4.4c1.2,2,1.3,4.2,0.5,6.6c-0.6,1.8-1.6,3.3-2.9,4.4c-1.3,1.1-3,1.6-5,1.5
				v0.1c0.8,0.5,1.4,1,1.9,1.6c0.4,0.6,0.7,1.2,0.8,1.9c0.1,0.7,0.2,1.4,0.1,2.1c-0.1,0.7-0.2,1.5-0.3,2.2c-0.2,0.8-0.4,1.5-0.6,2.3
				c-0.2,0.8-0.4,1.6-0.5,2.3c-0.1,0.8-0.2,1.5-0.2,2.3c0,0.7,0.1,1.4,0.4,2.1l-4.5-1.5c-0.2-0.4-0.2-0.9-0.2-1.5
				c0.1-0.6,0.2-1.2,0.4-1.9s0.4-1.4,0.6-2.2c0.2-0.8,0.4-1.6,0.5-2.3c0.1-0.8,0.2-1.5,0.3-2.2s0-1.4-0.2-2s-0.6-1.2-1.1-1.7
				s-1.2-0.9-2.2-1.2l-9.9-3.3l-4.3,13l-4-1.3l10.1-30.4L567.9,105.7z M564.1,119.8c0.9,0.1,1.7,0.1,2.5-0.1s1.5-0.6,2.1-1.1
				c0.6-0.6,1.1-1.4,1.5-2.5c0.5-1.5,0.5-2.9,0-4.2c-0.5-1.2-1.7-2.2-3.6-2.8l-10-3.3l-3.5,10.6l8.4,2.8
				C562.3,119.4,563.2,119.6,564.1,119.8z"/>
			<path class="st8" d="M580.8,120.6c1.4-1.6,3-2.8,4.8-3.7c1.8-0.9,3.8-1.4,5.9-1.4c2.1-0.1,4.3,0.4,6.7,1.4c2.3,1,4.2,2.4,5.5,4
				c1.4,1.6,2.3,3.4,2.9,5.3c0.5,1.9,0.7,4,0.5,6.1c-0.2,2.1-0.8,4.2-1.7,6.1c-0.9,2-2,3.8-3.4,5.4c-1.4,1.6-3,2.8-4.8,3.7
				s-3.8,1.4-5.9,1.4c-2.1,0.1-4.3-0.4-6.7-1.5c-2.3-1-4.2-2.4-5.5-4c-1.4-1.6-2.3-3.4-2.9-5.3c-0.5-1.9-0.7-4-0.5-6.1
				s0.8-4.2,1.7-6.1C578.3,123.9,579.4,122.1,580.8,120.6z M579.9,132.3c-0.3,1.6-0.2,3.2,0.1,4.7s1,2.9,1.9,4.2
				c1,1.3,2.3,2.3,4.1,3.1s3.5,1.1,5,1c1.6-0.1,3.1-0.6,4.4-1.4s2.5-1.8,3.5-3.1s1.9-2.6,2.5-4.1c0.7-1.5,1.1-3,1.4-4.6
				c0.3-1.6,0.2-3.2-0.1-4.7s-1-2.9-1.9-4.2c-1-1.3-2.3-2.3-4.1-3.1c-1.8-0.8-3.5-1.1-5-1c-1.6,0.1-3.1,0.6-4.4,1.4
				c-1.3,0.8-2.5,1.8-3.5,3.1c-1,1.3-1.9,2.6-2.5,4.1C580.6,129.1,580.1,130.7,579.9,132.3z"/>
			<path class="st8" d="M622.8,129.8L609,154.6l14.8,8.3L622,166l-18.5-10.3l15.6-28L622.8,129.8z"/>
			<path class="st8" d="M647.6,183.4l-3.4-2.5l7.7-10.6l1.2-22.6l4.1,3l-1.3,18l16.6-6.8l3.9,2.9l-21,8L647.6,183.4z"/>
			<path class="st8" d="M703.7,195.5c-0.4-1.9-1.4-3.7-3-5.3c-1.4-1.3-2.8-2.2-4.3-2.6c-1.5-0.4-3-0.5-4.4-0.2
				c-1.5,0.3-2.9,0.8-4.3,1.6c-1.4,0.8-2.6,1.8-3.8,3.1c-1.3,1.3-2.3,2.7-3.1,4.2s-1.3,2.9-1.5,4.4s-0.1,3,0.4,4.4
				c0.5,1.5,1.4,2.9,2.8,4.2c1,1,2.1,1.7,3.2,2.1c1.1,0.4,2.2,0.6,3.4,0.6c1.1,0,2.3-0.3,3.4-0.8c1.1-0.5,2.2-1.2,3.1-2.1l3.1,3
				c-3.1,2.6-6.3,3.9-9.5,3.9c-3.3,0-6.4-1.4-9.3-4.3c-1.8-1.7-3.1-3.5-3.8-5.4s-1-3.8-0.9-5.7s0.7-3.8,1.7-5.7s2.3-3.7,3.9-5.4
				c1.6-1.7,3.4-3,5.3-4.1c1.9-1,3.8-1.6,5.8-1.9c2-0.2,3.9,0,5.9,0.7s3.9,1.9,5.6,3.6c1.2,1.2,2.2,2.4,3,3.8s1.3,2.8,1.5,4.2
				s0.2,2.9-0.1,4.4s-1,2.9-2,4.3l-3.1-3C703.7,199.4,704.1,197.5,703.7,195.5z"/>
			<path class="st8" d="M710.2,209.4c2-0.8,3.9-1.2,6-1.3c2,0,4,0.4,5.9,1.2c1.9,0.9,3.7,2.2,5.4,4.2c1.6,1.9,2.7,3.9,3.3,6
				c0.5,2.1,0.6,4.1,0.3,6.1c-0.4,2-1.1,3.9-2.2,5.7c-1.1,1.8-2.5,3.4-4.2,4.8c-1.7,1.4-3.5,2.5-5.4,3.4c-2,0.8-3.9,1.2-6,1.3
				c-2,0-4-0.4-5.9-1.3c-1.9-0.9-3.7-2.3-5.4-4.2c-1.6-1.9-2.7-3.9-3.3-6c-0.5-2-0.6-4.1-0.3-6c0.3-2,1.1-3.9,2.2-5.7
				c1.1-1.8,2.5-3.4,4.2-4.8C706.4,211.4,708.2,210.2,710.2,209.4z M704.3,219.6c-0.9,1.3-1.6,2.8-1.9,4.2c-0.4,1.5-0.4,3-0.1,4.6
				c0.3,1.6,1.1,3.1,2.4,4.6c1.3,1.5,2.6,2.5,4.1,3.1s3,0.8,4.5,0.7s3-0.5,4.5-1.2s2.8-1.6,4-2.6s2.3-2.2,3.2-3.6
				c0.9-1.3,1.6-2.8,1.9-4.2c0.4-1.5,0.4-3,0.1-4.6c-0.3-1.6-1.1-3.1-2.4-4.6c-1.3-1.5-2.6-2.5-4.1-3.1s-3-0.8-4.5-0.7
				s-3,0.5-4.5,1.2s-2.8,1.6-4,2.6C706.3,217.1,705.2,218.2,704.3,219.6z"/>
			<path class="st8" d="M744.3,236l-11.7,28.6l0.1,0.1l21.3-14.8l2.3,3.3L730,271.5l-2.7-3.8l11.6-28.4l-0.1-0.1l-21.1,14.6
				l-2.3-3.3l26.3-18.3L744.3,236z"/>
			<path class="st8" d="M771.9,279.9l-3.1,1.8l-8.3-14.6l-8.8,5l7.3,12.8l-3.1,1.8l-7.3-12.8l-12.7,7.3l-2.1-3.7l27.8-15.9
				L771.9,279.9z"/>
			<path class="st8" d="M777.1,290.6l-28.7,14.2l-1.9-3.8l28.7-14.2L777.1,290.6z"/>
			<path class="st8" d="M786.7,311.9L762,335.8l-1.8-4.3l7.5-6.9l-5.2-12.5l-10.3,0.4l-1.7-4l34.3-0.9L786.7,311.9z M770.5,321.9
				l11.7-10.7v-0.1l-15.9,0.8L770.5,321.9z"/>
			<path class="st8" d="M794.8,333.5l-19.7,23.8v0.1l24.8-7.7l1.2,3.9l-30.5,9.5l-1.4-4.4l19.5-23.6V335l-24.5,7.7l-1.2-3.9
				l30.5-9.5L794.8,333.5z"/>
			<path class="st8" d="M803.7,381l-3.9-18l3.5-0.8l4.9,22.9l-3.5,0.8l-28.4-14.2l4.3,19.9l-3.5,0.8l-5.4-24.9l3.5-0.8L803.7,381z"
				/>
			<path class="st8" d="M811.2,406.2L781,422.6l-0.6-4.7l9.1-4.7l-1.7-13.4l-10-2.3l-0.5-4.3l33.3,8.3L811.2,406.2z M792.9,411.5
				l14.1-7.2v-0.1l-15.5-3.5L792.9,411.5z"/>
		</g>
	</g>
	<g>
		<path class="st2" d="M589.2,551.9c0,0-27.4,35.1-61.2,35.1s-61.2-35.1-61.2-35.1s27.4-35.1,61.2-35.1S589.2,551.9,589.2,551.9z"/>
		<path class="st9" d="M589.2,551.9c0,0-27.4,35.1-61.2,35.1s-61.2-35.1-61.2-35.1s27.4-35.1,61.2-35.1S589.2,551.9,589.2,551.9z"/>
		<circle class="st6" cx="528" cy="551.9" r="34.1"/>
		<circle class="st9" cx="528" cy="551.9" r="34.1"/>
		<circle class="st7" cx="528" cy="551.9" r="16.3"/>
		<circle class="st9" cx="528" cy="551.9" r="16.3"/>
		<g>
			<circle class="st2" cx="516.1" cy="540.1" r="6.5"/>
			<circle class="st9" cx="516.1" cy="540.1" r="6.5"/>
		</g>
	</g>
	<g>
		<path class="st2" d="M589.2,552.6c0,0-27.4,35.1-61.2,35.1s-61.2-35.1-61.2-35.1s27.4-35.1,61.2-35.1S589.2,552.6,589.2,552.6z"/>
		<g>
			<path class="st5" d="M528,589.7c-34.4,0-61.6-34.4-62.8-35.8c-0.6-0.7-0.6-1.7,0-2.4c1.1-1.5,28.4-35.8,62.8-35.8
				s61.6,34.4,62.8,35.8c0.6,0.7,0.6,1.7,0,2.4C589.6,555.3,562.3,589.7,528,589.7z M469.3,552.6c5.2,6.1,29.8,33.1,58.7,33.1
				s53.5-27,58.7-33.1c-5.2-6.1-29.8-33.1-58.7-33.1C499,519.5,474.5,546.5,469.3,552.6z"/>
		</g>
		<circle class="st6" cx="528" cy="552.6" r="34.1"/>
		<g>
			<path class="st5" d="M528,588.7c-19.9,0-36.1-16.2-36.1-36.1c0-19.9,16.2-36.1,36.1-36.1c19.9,0,36.1,16.2,36.1,36.1
				C564,572.5,547.9,588.7,528,588.7z M528,520.5c-17.7,0-32.1,14.4-32.1,32.1s14.4,32.1,32.1,32.1s32.1-14.4,32.1-32.1
				S545.7,520.5,528,520.5z"/>
		</g>
		<circle class="st7" cx="528" cy="552.6" r="16.3"/>
		<g>
			<path class="st5" d="M528,570.9c-10.1,0-18.3-8.2-18.3-18.3s8.2-18.3,18.3-18.3s18.3,8.2,18.3,18.3S538.1,570.9,528,570.9z
				 M528,538.3c-7.9,0-14.3,6.4-14.3,14.3S520.1,567,528,567s14.3-6.4,14.3-14.3S535.9,538.3,528,538.3z"/>
		</g>
		<g>
			<circle class="st2" cx="516.4" cy="541.2" r="6.5"/>
			<g>
				<path class="st5" d="M516.4,549.7c-4.7,0-8.5-3.8-8.5-8.5s3.8-8.5,8.5-8.5s8.5,3.8,8.5,8.5S521.1,549.7,516.4,549.7z
					 M516.4,536.6c-2.5,0-4.6,2-4.6,4.6c0,2.5,2,4.6,4.6,4.6c2.5,0,4.6-2,4.6-4.6C520.9,538.7,518.9,536.6,516.4,536.6z"/>
			</g>
		</g>
	</g>
</g>
</svg>
